<svg width="14" height="14" viewBox="0 0 14 14" fill="none" xmlns="http://www.w3.org/2000/svg">
<path d="M1.27971 1.72029L2.03396 0.96604L13.3477 12.2797L12.5934 13.034L1.27971 1.72029Z" fill="black"/>
<path d="M12.5935 0.96611L13.3478 1.72036L2.03407 13.0341L1.27982 12.2798L12.5935 0.96611Z" fill="black"/>
<path d="M1.27971 1.72029L2.03396 0.96604L13.3477 12.2797L12.5934 13.034L1.27971 1.72029Z" stroke="black" stroke-width="0.5"/>
<path d="M12.5935 0.96611L13.3478 1.72036L2.03407 13.0341L1.27982 12.2798L12.5935 0.96611Z" stroke="black" stroke-width="0.5"/>
</svg>
