<svg width="13" height="12" viewBox="0 0 13 12" fill="none" xmlns="http://www.w3.org/2000/svg">
<path d="M12.0333 1C12.0333 0.613401 11.7199 0.3 11.3333 0.3L5.03325 0.299999C4.64665 0.299999 4.33325 0.613401 4.33325 1C4.33325 1.3866 4.64665 1.7 5.03325 1.7H10.6333V7.3C10.6333 7.6866 10.9467 8 11.3333 8C11.7199 8 12.0333 7.6866 12.0333 7.3L12.0333 1ZM1.82823 11.495L11.8282 1.49497L10.8383 0.505025L0.838277 10.505L1.82823 11.495Z" fill="white"/>
</svg>
