<svg width="18" height="17" viewBox="0 0 18 17" fill="none" xmlns="http://www.w3.org/2000/svg">
<path d="M8.08871 0.258789C12.0017 0.258789 15.1774 3.52592 15.1774 7.55149C15.1774 11.5771 12.0017 14.8442 8.08871 14.8442C4.17574 14.8442 1 11.5771 1 7.55149C1 3.52592 4.17574 0.258789 8.08871 0.258789ZM8.08871 13.2236C11.1345 13.2236 13.6021 10.6849 13.6021 7.55149C13.6021 4.41725 11.1345 1.87939 8.08871 1.87939C5.04214 1.87939 2.57527 4.41725 2.57527 7.55149C2.57527 10.6849 5.04214 13.2236 8.08871 13.2236ZM14.7718 13.2811L17 15.5726L15.8855 16.7192L13.6581 14.4269L14.7718 13.2811Z" fill="#FF1A24" stroke="#FF1A24" stroke-width="0.2"/>
</svg>
