<svg width="25" height="8" viewBox="0 0 25 8" fill="none" xmlns="http://www.w3.org/2000/svg">
<path d="M24.3536 4.35356C24.5488 4.15829 24.5488 3.84171 24.3536 3.64645L21.1716 0.464468C20.9763 0.269206 20.6597 0.269206 20.4645 0.464468C20.2692 0.65973 20.2692 0.976313 20.4645 1.17157L23.2929 4L20.4645 6.82843C20.2692 7.02369 20.2692 7.34027 20.4645 7.53554C20.6597 7.7308 20.9763 7.7308 21.1716 7.53554L24.3536 4.35356ZM-4.37114e-08 4.5L24 4.5L24 3.5L4.37114e-08 3.5L-4.37114e-08 4.5Z" fill="#FF1A24"/>
</svg>
